{
  "date": {
    "txt": [
      {
        "date": "07/03/2025",
        "title": "Horror ex Machina",
        "ora": "21:00",
        "descrizione": "",
        "links": [
          ["Piano Terra", "https://www.pianoterralab.org/events/akme-horror-ex-machina/"],
          ["Puntello","https://puntello.org/event/a-k-m-e-horror-ex-machina-di-fabio-malagnini"],
          ["Hacker Convoca.la","https://hacker.convoca.la/event/a-k-m-e-horror-ex-machina-di-fabio-malagnini"]
        ]
      },
      {
        "date": "21/02/2025",
        "title": "Unità Linguaggi Artificiali con A/I",
        "ora": "21:00",
        "descrizione": "",
        "links": [
          ["Piano Terra", "https://www.pianoterralab.org/events/akme-ula-ai/"],
          ["Puntello", "https://puntello.org/event/a-k-m-e-chiacchierata-sul-progetto-ula-con-autisticiinventati"],
          ["Hacker Convoca.la","https://hacker.convoca.la/event/a-k-m-e-chiacchierata-sul-progetto-ula-con-autisticiinventati"]
        ]
      },
      {
        "date": "07/02/2025",
        "title": "Hack into slang",
        "ora": "21:00",
        "descrizione": "",
        "links": [
          ["Piano Terra", "https://www.pianoterralab.org/events/akme-hack-into-slang/"],
          ["Puntello", "https://puntello.org/event/a-k-m-e-hack-into-slang"],
          ["Hacker Convoca.la","https://hacker.convoca.la/event/a-k-m-e-hack-into-slang"]
        ]
      },
      {
        "date": "24/01/2025",
        "title": "API Telegram",
        "ora": "21:00",
        "descrizione": "",
        "links": [
          ["Piano Terra", "https://www.pianoterralab.org/events/akme-api-telegram/"],
          ["Puntello", "https://puntello.org/event/a-k-m-e-api-di-telegram"]
        ]
      },
      {
        "date": "20/12/2024",
        "title": "Celebrate cyber? punk!",
        "ora": "21:00",
        "descrizione": "",
        "links": [
          ["Piano Terra", "https://www.pianoterralab.org/events/celebrate-cyber-punk-akme/"],
          ["Puntello", "https://puntello.org/event/celebrate-cyber-punk-a-k-m-e"],
          ["Hacker Convoca.la", "https://hacker.convoca.la/event/celebrate-cyber-punk-a-k-m-e"]
        ]
      },
      {
        "date": "06/12/2024",
        "title": "Incontro - assemblea aperta",
        "ora": "21:00",
        "descrizione": "",
        "links": [
          ["Piano Terra", "https://www.pianoterralab.org/events/incontro-a-k-m-e-2/"]
        ]
      },
      {
        "date": "22/11/2024",
        "title": "Lab - videosorveglianza e riconoscimento facciale",
        "ora": "21:00",
        "descrizione": "",
        "links": [
          ["Piano Terra", "https://www.pianoterralab.org/events/akme-lab-videosorveglainza-riconoscimento-facciale-2/"],
          ["Puntello", "https://puntello.org/event/a-k-m-e-lab-videosorveglianza-simulata-e-riconoscimento-facciale-1"]
        ]
      },
      {
        "date": "08/11/2024",
        "title": "Lab - videosorveglianza e riconoscimento facciale",
        "ora": "21:00",
        "descrizione": "",
        "links": [
          ["Piano Terra", "https://www.pianoterralab.org/events/akme-lab-videosorveglainza-riconoscimento-facciale/"],
          ["Puntello", "https://puntello.org/event/a-k-m-e-lab-videosorveglianza-simulata-e-riconoscimento-facciale"]
        ]
      },
      {
        "date": "18/10/2024",
        "title": "DNA & TCP/IP",
        "ora": "21:00",
        "descrizione": "",
        "links":  [
          ["Piano Terra", "https://www.pianoterralab.org/events/akme-dna-tcpip/"],
          ["Puntello", "https://puntello.org/event/a-k-m-e-dna-and-tcpip"]
        ]
      },
      {
        "date": "04/10/2024",
        "title": "Mi sentivo fortunat*",
        "ora": "21:00",
        "descrizione": "",
        "links":  [
          ["Piano Terra", "https://www.pianoterralab.org/events/akme-mi-sentivo-fortunat/"],
          ["Puntello", "https://puntello.org/event/a-k-m-e-mi-sentivo-fortunat"]
        ]
      },
      {
        "date": "20/09/2024",
        "title": "Reboot",
        "ora": "21:00",
        "descrizione": "",
        "links":  [
          ["Piano Terra", "https://www.pianoterralab.org/events/reboot-a-k-m-e/"],
          ["Puntello", "https://puntello.org/event/reboot-a-k-m-e"]
        ]
      },
      {
        "date": "25/05/2024",
        "title": "Astro cyber crypto bluff",
        "ora": "19:30",
        "descrizione": "",
        "links":  [
          ["Piano Terra", "https://www.pianoterralab.org/events/a-k-m-e-astro-cyber/"],
          ["Puntello", "https://puntello.org/event/a-k-m-e-astro-cyber-crypto-bluff"]
        ]
      },
      {
        "date": "10/05/2024",
        "title": "Instant Messaging e sicurezza",
        "ora": "21:00",
        "descrizione": "",
        "links":  [
          ["Piano Terra", "https://www.pianoterralab.org/events/a-k-m-e-instant-messaging/"],
          ["Puntello", "https://puntello.org/event/instant-messaging-e-sicurezza"]
        ]
      },
      {
        "date": "18/04/2024",
        "title": "Macchine senzienti e consenzienti",
        "ora": "21:00",
        "descrizione": "",
        "links":  [
          ["Piano Terra", "https://www.pianoterralab.org/events/a-k-m-e-macchine/"],
          ["Puntello", "https://puntello.org/event/a-k-m-e-macchine-senzienti-e-consenzienti"]
        ]
      },
      {
        "date": "05/04/2024",
        "title": "Core loops & gamification",
        "ora": "21:00",
        "descrizione": "",
        "links":  [
          ["Piano Terra", "https://www.pianoterralab.org/events/a-k-m-e-core-loops/"],
          ["Puntello", "https://puntello.org/event/a-k-m-e-core-loops-and-gamification"]
        ]
      },
      {
        "date": "21/03/2024",
        "title": "Racconti dalla cripta, storie di crypto-dipendenze",
        "ora": "21:00",
        "descrizione": "",
        "links":  [
          ["Piano Terra", "https://www.pianoterralab.org/events/a-k-m-e-racconti-cripta/"],
          ["Puntello", "https://puntello.org/event/a-k-m-e-racconti-dalla-cripta"]
        ]
      },
      {
        "date": "07/03/2024",
        "title": "Automi, Voci e 3d",
        "ora": "21:00",
        "descrizione": "",
        "links":  [
          ["Piano Terra", "https://www.pianoterralab.org/events/a-k-m-e-voci-3d/"],
          ["Puntello", "https://puntello.org/event/a-k-m-e-voci-e-3d"]
        ]
      },
      {
        "date": "23/02/2024",
        "title": "Automi cellulari e reti neurali",
        "ora": "21:00",
        "descrizione": "",
        "links":  [
          ["Piano Terra", "https://www.pianoterralab.org/events/a-k-m-e-automi-reti-2/"],
          ["Puntello", "https://puntello.org/event/a-k-m-e-automi-cellulari-e-reti-neurali-1"]
        ]
      },
      {
        "date": "09/02/2024",
        "title": "Automi cellulari e reti neurali",
        "ora": "21:00",
        "descrizione": "",
        "links":  [
          ["Piano Terra","https://www.pianoterralab.org/events/a-k-m-e-automi-reti/"],
          ["Puntello", "https://puntello.org/event/a-k-m-e-automi-cellulari-e-reti-neurali"]
        ]
      },
      {
        "date": "25/01/2024",
        "title": "Automi, linguaggi e simulazioni",
        "ora": "21:00",
        "descrizione": "",
        "links":  [
          ["Piano Terra", "https://www.pianoterralab.org/events/a-k-m-e-automi-linguaggi-simulazioni/"],
          ["Puntello", "https://puntello.org/event/a-k-m-e-automi-linguaggi-e-simulazioni-1"]
        ]
      },
      {
        "date": "12/01/2024",
        "title": "Automi, linguaggi e simulazioni",
        "ora": "21:00",
        "descrizione": "",
        "links":  [
          ["Piano Terra", "https://www.pianoterralab.org/events/a-k-m-e-automi-linguaggi-simulazioni-2/"],
          ["Puntello", "https://puntello.org/event/a-k-m-e-automi-linguaggi-e-simulazioni"]
        ]
      },
      {
        "date": "18/12/2023",
        "title": "Virtuale del Vivente",
        "ora": "21:00",
        "descrizione": "",
        "links":  [
          ["Piano Terra", "https://www.pianoterralab.org/events/a-k-m-e-virtuale-del-vivente-03/"]
        ]
      },
      {
        "date": "24/11/2023",
        "title": "Virtuale del Vivente",
        "ora": "21:00",
        "descrizione": "",
        "links":  [
          ["Piano Terra", "https://www.pianoterralab.org/events/a-k-m-e-virtuale-del-vivente-02/"],
          ["Puntello", "https://puntello.org/event/a-k-m-e-virtuale-del-vivente-1"]
        ]
      },
      {
        "date": "10/11/2023",
        "title": "Virtuale del Vivente",
        "ora": "21:00",
        "descrizione": "",
        "links":  [
          ["Piano Terra", "https://www.pianoterralab.org/events/a-k-m-e-virtuale-del-vivente/"],
          ["Puntello","https://puntello.org/event/a-k-m-e-virtuale-del-vivente"]
        ]
      },
      {
        "date": "20/10/2023",
        "title": "immersion",
        "ora": "21:00",
        "descrizione": "",
        "links":  [
          ["Piano Terra", "https://www.pianoterralab.org/events/a-k-m-e-immersion-02/"],
          ["Puntello", "https://puntello.org/event/a-k-m-e-immersion-1"]
        ]
      },
      {
        "date": "06/10/2023",
        "title": "immersion",
        "ora": "21:00",
        "descrizione": "",
        "links":  [
          ["Piano Terra", "https://www.pianoterralab.org/events/a-k-m-e-immersion/"],
          ["Puntello", "https://puntello.org/event/a-k-m-e-immersion"]
        ]
      },
      {
        "date": "14/10/2022",
        "title": "Laboratorio per il Fotoromeme",
        "ora": "19:00",
        "descrizione": "",
        "links":  [
          ["Piano Terra", "https://www.pianoterralab.org/events/laboratorio-per-il-fotoromeme/"],
          ["Puntello", "https://puntello.org/event/laboratorio-per-il-fotoromeme"]
        ]
      },
      {
        "date": "22/04/2022",
        "title": "Presentazione di cyclo.style",
        "ora": "19:00",
        "descrizione": "",
        "links":  [
          ["Piano Terra", "https://www.pianoterralab.org/events/presentazione-di-cyclo-stile/"],
          ["Puntello", "https://puntello.org/event/presentazione-di-cyclostyle"]
        ]
      }
    ]
  }
}